Gene,Set,Comment
CD27,Naive T cells,
CCR7,Naive T cells,
CD8A,Naive T cells,
CD8B,Naive T cells,
IL7R,CD4+ memory T cells,
CD27,CD4+ memory T cells,
CCR7,CD4+ memory T cells,
ZNF683,NKT cells,
CD8A,NKT cells,
CD8B,NKT cells,
CD79A,B cells,
CD37,B cells,
GZMK,CD8+ T cells,
CD8A,CD8+ T cells,
CD8B,CD8+ T cells,
CD160,NK cells,
NKG7,NK cells,
GNLY,NK cells,
CD247,NK cells,
CCL3,NK cells,
GZMB,NK cells,
CD68,CD16+ and CD14+ Monocytes,
CD16(FCGR3A),CD16+ and CD14+ Monocytes,
CD14,CD16+ and CD14+ Monocytes,
S100A12,CD16+ and CD14+ Monocytes,
CCR10,Regulatory T cells,
CD25(IL2RA),Regulatory T cells,
CD52,Regulatory T cells,
CMTM7,Regulatory T cells,
FOXP3,Regulatory T cells,
CST3,Monocyte derived dendritic cells ,
CD1C,Monocyte derived dendritic cells ,
FCER1A,Monocyte derived dendritic cells ,
PF4,Megakaryocyte progenitors ,
PPBP,Megakaryocyte progenitors ,
PLA2G12A,Megakaryocyte progenitors ,
ID2,Progenitor-NK cells ,
GZMB,Plasmacytoid dendritic cells ,
CD123(IL2RA),Plasmacytoid dendritic cells ,